<?xml version="1.0" encoding="UTF-8"?>
<session version="1.0">
<refactoring comment="Delete resource &apos;CRUD&apos;" deleteContents="true" description="Delete resource &apos;CRUD&apos;" element1="/CRUD" flags="7" id="org.eclipse.ltk.core.refactoring.delete.resources" resources="1" stamp="1564930602849"/>
</session>