127.0.0.1 - - [18/Oct/2019:07:16:48 +0545] "GET / HTTP/1.1" 404 1074
0:0:0:0:0:0:0:1 - - [18/Oct/2019:07:16:52 +0545] "GET /ControlledLogin/ HTTP/1.1" 200 949
0:0:0:0:0:0:0:1 - - [18/Oct/2019:07:16:59 +0545] "GET /ControlledLogin/ELform.jsp HTTP/1.1" 200 259
0:0:0:0:0:0:0:1 - - [18/Oct/2019:07:17:17 +0545] "GET /ControlledLogin/ELform.jsp HTTP/1.1" 200 258
0:0:0:0:0:0:0:1 - - [18/Oct/2019:07:17:23 +0545] "POST /ControlledLogin/welcome.jsp HTTP/1.1" 200 151
0:0:0:0:0:0:0:1 - - [18/Oct/2019:07:18:03 +0545] "POST /ControlledLogin/welcome.jsp HTTP/1.1" 200 157
0:0:0:0:0:0:0:1 - - [18/Oct/2019:07:41:48 +0545] "GET /ControlledLogin/ HTTP/1.1" 200 997
0:0:0:0:0:0:0:1 - - [18/Oct/2019:07:41:53 +0545] "GET /ControlledLogin/JSTL-Core.jsp HTTP/1.1" 200 145
0:0:0:0:0:0:0:1 - - [18/Oct/2019:07:44:30 +0545] "GET /ControlledLogin/JSTL-Core.jsp HTTP/1.1" 500 3973
0:0:0:0:0:0:0:1 - - [18/Oct/2019:07:48:24 +0545] "GET /ControlledLogin/ HTTP/1.1" 200 994
0:0:0:0:0:0:0:1 - - [18/Oct/2019:07:48:28 +0545] "GET /ControlledLogin/JSTL-Core.jsp HTTP/1.1" 200 161
0:0:0:0:0:0:0:1 - - [18/Oct/2019:07:49:25 +0545] "GET /ControlledLogin/ HTTP/1.1" 200 994
0:0:0:0:0:0:0:1 - - [18/Oct/2019:07:49:27 +0545] "GET /ControlledLogin/JSTL-Core.jsp HTTP/1.1" 200 172
0:0:0:0:0:0:0:1 - - [18/Oct/2019:07:50:59 +0545] "GET /ControlledLogin/ HTTP/1.1" 200 994
0:0:0:0:0:0:0:1 - - [18/Oct/2019:07:51:03 +0545] "GET /ControlledLogin/JSTL-Core.jsp HTTP/1.1" 200 216
0:0:0:0:0:0:0:1 - - [18/Oct/2019:07:51:46 +0545] "GET /ControlledLogin/JSTL-Core.jsp HTTP/1.1" 200 211
0:0:0:0:0:0:0:1 - - [18/Oct/2019:07:56:14 +0545] "GET /ControlledLogin/JSTL-Core.jsp HTTP/1.1" 200 365
0:0:0:0:0:0:0:1 - - [18/Oct/2019:08:02:41 +0545] "GET /ControlledLogin/ HTTP/1.1" 200 1038
0:0:0:0:0:0:0:1 - - [18/Oct/2019:08:02:47 +0545] "GET /ControlledLogin/JSTLform.jsp HTTP/1.1" 200 302
127.0.0.1 - - [18/Oct/2019:09:04:08 +0545] "GET / HTTP/1.1" 404 1074
0:0:0:0:0:0:0:1 - - [18/Oct/2019:09:04:11 +0545] "GET /ControlledLogin/ HTTP/1.1" 200 1079
0:0:0:0:0:0:0:1 - - [18/Oct/2019:09:04:21 +0545] "GET /ControlledLogin/Javabeans.jsp HTTP/1.1" 200 127
0:0:0:0:0:0:0:1 - - [18/Oct/2019:09:04:36 +0545] "GET /ControlledLogin/Servlet111?txt_n1=20&txt_n2=40 HTTP/1.1" 200 51
0:0:0:0:0:0:0:1 - - [18/Oct/2019:09:04:40 +0545] "GET /ControlledLogin/Login.jsp HTTP/1.1" 200 377
0:0:0:0:0:0:0:1 - - [18/Oct/2019:09:04:44 +0545] "GET /ControlledLogin/form10.jsp HTTP/1.1" 200 571
0:0:0:0:0:0:0:1 - - [18/Oct/2019:09:04:52 +0545] "GET /ControlledLogin/form10_2.jsp HTTP/1.1" 200 574
0:0:0:0:0:0:0:1 - - [18/Oct/2019:09:04:56 +0545] "GET /ControlledLogin/Form111.jsp HTTP/1.1" 200 539
0:0:0:0:0:0:0:1 - - [18/Oct/2019:09:05:15 +0545] "GET /ControlledLogin/form11_1.jsp HTTP/1.1" 200 640
0:0:0:0:0:0:0:1 - - [18/Oct/2019:09:05:36 +0545] "GET /ControlledLogin/insertRecord?full_name=Suman&contact_address=gongabu HTTP/1.1" 500 3780
0:0:0:0:0:0:0:1 - - [18/Oct/2019:09:08:15 +0545] "GET /ControlledLogin/insertRecord?full_name=Suman&contact_address=gongabu HTTP/1.1" 404 1047
0:0:0:0:0:0:0:1 - - [18/Oct/2019:09:08:58 +0545] "GET /ControlledLogin/form11_1.jsp HTTP/1.1" 200 640
0:0:0:0:0:0:0:1 - - [18/Oct/2019:09:08:59 +0545] "GET /ControlledLogin/form11_1.jsp HTTP/1.1" 200 640
127.0.0.1 - - [18/Oct/2019:09:09:16 +0545] "GET / HTTP/1.1" 404 1074
0:0:0:0:0:0:0:1 - - [18/Oct/2019:09:09:17 +0545] "GET /ControlledLogin/ HTTP/1.1" 200 1079
0:0:0:0:0:0:0:1 - - [18/Oct/2019:09:09:21 +0545] "GET /ControlledLogin/displayAll HTTP/1.1" 200 1354
0:0:0:0:0:0:0:1 - - [18/Oct/2019:09:09:37 +0545] "GET /ControlledLogin/form11_1.jsp HTTP/1.1" 200 640
0:0:0:0:0:0:0:1 - - [18/Oct/2019:09:09:46 +0545] "GET /ControlledLogin/insertRecord?full_name=Suman&contact_address=gongabu HTTP/1.1" 200 33
127.0.0.1 - - [18/Oct/2019:09:51:41 +0545] "GET / HTTP/1.1" 404 1074
0:0:0:0:0:0:0:1 - - [18/Oct/2019:09:51:42 +0545] "GET /ControlledLogin/ HTTP/1.1" 200 1145
0:0:0:0:0:0:0:1 - - [18/Oct/2019:09:51:52 +0545] "GET /ControlledLogin/JSTLform.jsp HTTP/1.1" 200 302
0:0:0:0:0:0:0:1 - - [18/Oct/2019:09:51:59 +0545] "GET /ControlledLogin/JSTLform.jsp?n1=14&n2=23 HTTP/1.1" 200 302
0:0:0:0:0:0:0:1 - - [18/Oct/2019:09:52:34 +0545] "GET /ControlledLogin/JSTLform.jsp?n1=14&n2=23 HTTP/1.1" 200 314
0:0:0:0:0:0:0:1 - - [18/Oct/2019:09:52:39 +0545] "GET /ControlledLogin/JstlCalc.jsp?n1=23&n2=23 HTTP/1.1" 200 139
0:0:0:0:0:0:0:1 - - [18/Oct/2019:10:01:47 +0545] "GET /ControlledLogin/ HTTP/1.1" 200 1145
0:0:0:0:0:0:0:1 - - [18/Oct/2019:10:01:53 +0545] "GET /ControlledLogin/PropertyBean.jsp HTTP/1.1" 200 277
0:0:0:0:0:0:0:1 - - [18/Oct/2019:10:01:59 +0545] "GET /ControlledLogin/process2.jsp?name=Sandip HTTP/1.1" 500 2947
0:0:0:0:0:0:0:1 - - [18/Oct/2019:10:02:29 +0545] "GET /ControlledLogin/process2.jsp?name=Sandip HTTP/1.1" 500 2963
0:0:0:0:0:0:0:1 - - [18/Oct/2019:10:02:31 +0545] "GET /ControlledLogin/PropertyBean.jsp HTTP/1.1" 200 277
0:0:0:0:0:0:0:1 - - [18/Oct/2019:10:02:36 +0545] "GET /ControlledLogin/process2.jsp?name=Sandip HTTP/1.1" 500 2963
0:0:0:0:0:0:0:1 - - [18/Oct/2019:10:03:22 +0545] "GET /ControlledLogin/ HTTP/1.1" 200 1145
0:0:0:0:0:0:0:1 - - [18/Oct/2019:10:03:27 +0545] "GET /ControlledLogin/PropertyBean.jsp HTTP/1.1" 200 277
0:0:0:0:0:0:0:1 - - [18/Oct/2019:10:03:32 +0545] "GET /ControlledLogin/process2.jsp?name=Sandip HTTP/1.1" 500 2963
0:0:0:0:0:0:0:1 - - [18/Oct/2019:10:06:08 +0545] "GET /ControlledLogin/process2.jsp?name=Sandip HTTP/1.1" 500 2963
0:0:0:0:0:0:0:1 - - [18/Oct/2019:10:08:00 +0545] "GET /ControlledLogin/ HTTP/1.1" 200 1145
0:0:0:0:0:0:0:1 - - [18/Oct/2019:10:08:04 +0545] "GET /ControlledLogin/PropertyBean.jsp HTTP/1.1" 200 277
0:0:0:0:0:0:0:1 - - [18/Oct/2019:10:08:11 +0545] "GET /ControlledLogin/process2.jsp?name=Sandip HTTP/1.1" 500 2934
0:0:0:0:0:0:0:1 - - [18/Oct/2019:10:09:44 +0545] "GET /ControlledLogin/PropertyBean.jsp HTTP/1.1" 200 277
0:0:0:0:0:0:0:1 - - [18/Oct/2019:10:09:45 +0545] "GET /ControlledLogin/PropertyBean.jsp HTTP/1.1" 200 277
0:0:0:0:0:0:0:1 - - [18/Oct/2019:10:09:46 +0545] "GET /ControlledLogin/PropertyBean.jsp HTTP/1.1" 200 277
0:0:0:0:0:0:0:1 - - [18/Oct/2019:10:09:49 +0545] "GET /ControlledLogin/process2.jsp?name=dsdfds HTTP/1.1" 500 2934
0:0:0:0:0:0:0:1 - - [18/Oct/2019:10:10:46 +0545] "GET /ControlledLogin/ HTTP/1.1" 200 1145
0:0:0:0:0:0:0:1 - - [18/Oct/2019:10:10:50 +0545] "GET /ControlledLogin/PropertyBean.jsp HTTP/1.1" 200 277
0:0:0:0:0:0:0:1 - - [18/Oct/2019:10:10:54 +0545] "GET /ControlledLogin/process2.jsp?name=fvcv HTTP/1.1" 500 2989
0:0:0:0:0:0:0:1 - - [18/Oct/2019:10:28:35 +0545] "GET /ControlledLogin/ HTTP/1.1" 200 1145
0:0:0:0:0:0:0:1 - - [18/Oct/2019:10:28:39 +0545] "GET /ControlledLogin/PropertyBean.jsp HTTP/1.1" 200 277
0:0:0:0:0:0:0:1 - - [18/Oct/2019:10:28:43 +0545] "GET /ControlledLogin/process2.jsp?name=cvfdvdfg HTTP/1.1" 500 2989
0:0:0:0:0:0:0:1 - - [18/Oct/2019:10:29:20 +0545] "GET /ControlledLogin/PropertyBean.jsp HTTP/1.1" 200 277
0:0:0:0:0:0:0:1 - - [18/Oct/2019:10:29:23 +0545] "GET /ControlledLogin/process2.jsp?name=dsfs HTTP/1.1" 500 2989
0:0:0:0:0:0:0:1 - - [18/Oct/2019:10:29:52 +0545] "GET /ControlledLogin/PropertyBean.jsp HTTP/1.1" 200 277
0:0:0:0:0:0:0:1 - - [18/Oct/2019:10:29:55 +0545] "GET /ControlledLogin/process2.jsp?name=jhvh HTTP/1.1" 500 2989
0:0:0:0:0:0:0:1 - - [18/Oct/2019:10:30:47 +0545] "GET /ControlledLogin/PropertyBean.jsp HTTP/1.1" 200 277
0:0:0:0:0:0:0:1 - - [18/Oct/2019:10:30:50 +0545] "GET /ControlledLogin/process2.jsp?name=dfd HTTP/1.1" 500 2934
0:0:0:0:0:0:0:1 - - [18/Oct/2019:10:31:30 +0545] "GET /ControlledLogin/PropertyBean.jsp HTTP/1.1" 200 277
0:0:0:0:0:0:0:1 - - [18/Oct/2019:10:31:31 +0545] "GET /ControlledLogin/PropertyBean.jsp HTTP/1.1" 200 277
0:0:0:0:0:0:0:1 - - [18/Oct/2019:10:31:34 +0545] "GET /ControlledLogin/process2.jsp?name=fdgfd HTTP/1.1" 500 2934
0:0:0:0:0:0:0:1 - - [18/Oct/2019:10:35:02 +0545] "GET /ControlledLogin/PropertyBean.jsp HTTP/1.1" 200 277
0:0:0:0:0:0:0:1 - - [18/Oct/2019:10:35:05 +0545] "GET /ControlledLogin/process2.jsp?name=sdfd HTTP/1.1" 500 2934
127.0.0.1 - - [18/Oct/2019:10:35:28 +0545] "GET / HTTP/1.1" 404 1074
0:0:0:0:0:0:0:1 - - [18/Oct/2019:10:35:28 +0545] "GET /ControlledLogin/ HTTP/1.1" 200 1145
0:0:0:0:0:0:0:1 - - [18/Oct/2019:10:35:35 +0545] "GET /ControlledLogin/PropertyBean.jsp HTTP/1.1" 200 277
0:0:0:0:0:0:0:1 - - [18/Oct/2019:10:35:40 +0545] "GET /ControlledLogin/process2.jsp?name=gcvc HTTP/1.1" 500 2934
127.0.0.1 - - [18/Oct/2019:10:37:15 +0545] "GET / HTTP/1.1" 404 1074
0:0:0:0:0:0:0:1 - - [18/Oct/2019:10:37:16 +0545] "GET /ControlledLogin/ HTTP/1.1" 200 1145
0:0:0:0:0:0:0:1 - - [18/Oct/2019:10:37:22 +0545] "GET /ControlledLogin/PropertyBean.jsp HTTP/1.1" 200 277
0:0:0:0:0:0:0:1 - - [18/Oct/2019:10:37:26 +0545] "GET /ControlledLogin/process2.jsp?name=fxvf HTTP/1.1" 500 2723
0:0:0:0:0:0:0:1 - - [18/Oct/2019:10:39:11 +0545] "GET /ControlledLogin/PropertyBean.jsp HTTP/1.1" 200 277
0:0:0:0:0:0:0:1 - - [18/Oct/2019:10:39:14 +0545] "GET /ControlledLogin/process2.jsp?name=sdfsd HTTP/1.1" 500 2723
0:0:0:0:0:0:0:1 - - [18/Oct/2019:10:40:03 +0545] "GET /ControlledLogin/PropertyBean.jsp HTTP/1.1" 200 277
0:0:0:0:0:0:0:1 - - [18/Oct/2019:10:40:06 +0545] "GET /ControlledLogin/process2.jsp?name=dfg HTTP/1.1" 500 2723
127.0.0.1 - - [18/Oct/2019:10:42:12 +0545] "GET / HTTP/1.1" 404 1074
0:0:0:0:0:0:0:1 - - [18/Oct/2019:10:42:13 +0545] "GET /ControlledLogin/ HTTP/1.1" 200 1145
0:0:0:0:0:0:0:1 - - [18/Oct/2019:10:42:19 +0545] "GET /ControlledLogin/Javabeans.jsp HTTP/1.1" 200 127
0:0:0:0:0:0:0:1 - - [18/Oct/2019:10:42:30 +0545] "GET /ControlledLogin/PropertyBean.jsp HTTP/1.1" 200 277
0:0:0:0:0:0:0:1 - - [18/Oct/2019:10:42:34 +0545] "GET /ControlledLogin/process2.jsp?name=dfsd HTTP/1.1" 500 2723
0:0:0:0:0:0:0:1 - - [18/Oct/2019:10:44:16 +0545] "GET /ControlledLogin/PropertyBean.jsp HTTP/1.1" 200 277
0:0:0:0:0:0:0:1 - - [18/Oct/2019:10:44:19 +0545] "GET /ControlledLogin/process2.jsp?name=fdd HTTP/1.1" 500 2723
0:0:0:0:0:0:0:1 - - [18/Oct/2019:10:45:04 +0545] "GET /ControlledLogin/PropertyBean.jsp HTTP/1.1" 200 277
0:0:0:0:0:0:0:1 - - [18/Oct/2019:10:45:06 +0545] "GET /ControlledLogin/process2.jsp?name=sdfsd HTTP/1.1" 500 2723
127.0.0.1 - - [18/Oct/2019:10:46:39 +0545] "GET / HTTP/1.1" 404 1074
0:0:0:0:0:0:0:1 - - [18/Oct/2019:10:46:39 +0545] "GET /ControlledLogin/ HTTP/1.1" 200 1145
0:0:0:0:0:0:0:1 - - [18/Oct/2019:10:46:44 +0545] "GET /ControlledLogin/PropertyBean.jsp HTTP/1.1" 200 277
0:0:0:0:0:0:0:1 - - [18/Oct/2019:10:46:47 +0545] "GET /ControlledLogin/process2.jsp?name=sds HTTP/1.1" 500 2723
0:0:0:0:0:0:0:1 - - [18/Oct/2019:11:21:51 +0545] "GET /ControlledLogin/JSTL-Core.jsp HTTP/1.1" 200 365
