0:0:0:0:0:0:0:1 - - [20/Oct/2019:06:53:14 +0545] "GET /ControlledLogin/ HTTP/1.1" 200 1197
0:0:0:0:0:0:0:1 - - [20/Oct/2019:06:53:24 +0545] "GET /ControlledLogin/PropertyBean.jsp HTTP/1.1" 200 277
0:0:0:0:0:0:0:1 - - [20/Oct/2019:06:53:33 +0545] "GET /ControlledLogin/process2.jsp?name=Sandip HTTP/1.1" 500 2723
0:0:0:0:0:0:0:1 - - [20/Oct/2019:07:07:06 +0545] "GET /ControlledLogin/JSTL-Core.jsp HTTP/1.1" 200 480
0:0:0:0:0:0:0:1 - - [20/Oct/2019:07:07:06 +0545] "GET /ControlledLogin/JSTL-Core.jsp HTTP/1.1" 200 480
0:0:0:0:0:0:0:1 - - [20/Oct/2019:07:12:03 +0545] "GET /ControlledLogin/JSTL-Core.jsp HTTP/1.1" 200 555
0:0:0:0:0:0:0:1 - - [20/Oct/2019:07:18:35 +0545] "GET /ControlledLogin/JSTL-Core.jsp HTTP/1.1" 500 2743
0:0:0:0:0:0:0:1 - - [20/Oct/2019:07:21:02 +0545] "GET /ControlledLogin/JSTL-Core.jsp HTTP/1.1" 500 2921
0:0:0:0:0:0:0:1 - - [20/Oct/2019:07:25:01 +0545] "GET /ControlledLogin/JSTL-Core.jsp HTTP/1.1" 200 695
0:0:0:0:0:0:0:1 - - [20/Oct/2019:07:31:47 +0545] "GET /ControlledLogin/ HTTP/1.1" 200 1250
0:0:0:0:0:0:0:1 - - [20/Oct/2019:07:31:51 +0545] "GET /ControlledLogin/JSTL-Function.jsp HTTP/1.1" 200 144
0:0:0:0:0:0:0:1 - - [20/Oct/2019:07:33:54 +0545] "GET /ControlledLogin/JSTL-Function.jsp HTTP/1.1" 200 195
0:0:0:0:0:0:0:1 - - [20/Oct/2019:07:37:51 +0545] "GET /ControlledLogin/JSTL-Function.jsp HTTP/1.1" 500 3281
0:0:0:0:0:0:0:1 - - [20/Oct/2019:07:37:56 +0545] "GET /ControlledLogin/JSTL-Function.jsp HTTP/1.1" 500 3281
0:0:0:0:0:0:0:1 - - [20/Oct/2019:07:39:32 +0545] "GET /ControlledLogin/ HTTP/1.1" 200 1250
0:0:0:0:0:0:0:1 - - [20/Oct/2019:07:39:36 +0545] "GET /ControlledLogin/JSTL-Function.jsp HTTP/1.1" 200 195
0:0:0:0:0:0:0:1 - - [20/Oct/2019:07:44:43 +0545] "GET /ControlledLogin/JSTL-Function.jsp HTTP/1.1" 200 304
0:0:0:0:0:0:0:1 - - [20/Oct/2019:07:50:24 +0545] "GET /ControlledLogin/ HTTP/1.1" 200 1307
0:0:0:0:0:0:0:1 - - [20/Oct/2019:07:50:27 +0545] "GET /ControlledLogin/JSTL-Formatiing.jsp HTTP/1.1" 200 280
0:0:0:0:0:0:0:1 - - [20/Oct/2019:07:51:36 +0545] "GET /ControlledLogin/JSTL-Formatiing.jsp HTTP/1.1" 200 283
0:0:0:0:0:0:0:1 - - [20/Oct/2019:07:59:28 +0545] "GET /ControlledLogin/JSTL-Formatiing.jsp HTTP/1.1" 200 105167
0:0:0:0:0:0:0:1 - - [20/Oct/2019:08:05:06 +0545] "GET /ControlledLogin/ HTTP/1.1" 200 1363
0:0:0:0:0:0:0:1 - - [20/Oct/2019:17:44:25 +0545] "GET /ControlledLogin/ HTTP/1.1" 200 1415
0:0:0:0:0:0:0:1 - - [20/Oct/2019:17:44:33 +0545] "GET /ControlledLogin/Assignment.jsp HTTP/1.1" 200 405
0:0:0:0:0:0:0:1 - - [20/Oct/2019:17:45:15 +0545] "GET /ControlledLogin/Assignment.jsp HTTP/1.1" 200 418
0:0:0:0:0:0:0:1 - - [20/Oct/2019:17:45:46 +0545] "GET /ControlledLogin/Assignment.jsp HTTP/1.1" 200 426
0:0:0:0:0:0:0:1 - - [20/Oct/2019:18:07:26 +0545] "GET /ControlledLogin/JSTLform.jsp HTTP/1.1" 200 314
0:0:0:0:0:0:0:1 - - [20/Oct/2019:18:07:32 +0545] "GET /ControlledLogin/PropertyBean.jsp HTTP/1.1" 200 277
0:0:0:0:0:0:0:1 - - [20/Oct/2019:18:07:39 +0545] "GET /ControlledLogin/process2.jsp?name=Sandip HTTP/1.1" 500 2723
0:0:0:0:0:0:0:1 - - [20/Oct/2019:18:10:09 +0545] "GET /ControlledLogin/process2.jsp?name=Sandip HTTP/1.1" 500 2723
0:0:0:0:0:0:0:1 - - [20/Oct/2019:18:10:15 +0545] "GET /ControlledLogin/PropertyBean.jsp HTTP/1.1" 200 277
0:0:0:0:0:0:0:1 - - [20/Oct/2019:18:10:20 +0545] "GET /ControlledLogin/process2.jsp?name=Sandip HTTP/1.1" 500 2723
0:0:0:0:0:0:0:1 - - [20/Oct/2019:18:14:07 +0545] "GET /ControlledLogin/PropertyBean.jsp HTTP/1.1" 200 277
0:0:0:0:0:0:0:1 - - [20/Oct/2019:18:14:13 +0545] "GET /ControlledLogin/process2.jsp?name=sandip HTTP/1.1" 500 2723
0:0:0:0:0:0:0:1 - - [20/Oct/2019:18:19:02 +0545] "GET /ControlledLogin/PropertyBean.jsp HTTP/1.1" 200 277
0:0:0:0:0:0:0:1 - - [20/Oct/2019:18:19:08 +0545] "GET /ControlledLogin/process2.jsp?name=sandip HTTP/1.1" 200 190
0:0:0:0:0:0:0:1 - - [20/Oct/2019:18:22:24 +0545] "GET /ControlledLogin/process2.jsp?name=sandip HTTP/1.1" 200 234
0:0:0:0:0:0:0:1 - - [20/Oct/2019:18:22:26 +0545] "GET /ControlledLogin/Display.jsp HTTP/1.1" 200 165
0:0:0:0:0:0:0:1 - - [20/Oct/2019:18:22:32 +0545] "GET /ControlledLogin/PropertyBean.jsp HTTP/1.1" 200 277
0:0:0:0:0:0:0:1 - - [20/Oct/2019:18:22:40 +0545] "GET /ControlledLogin/process2.jsp?name=Sandip+Agrahari HTTP/1.1" 200 243
0:0:0:0:0:0:0:1 - - [20/Oct/2019:18:22:41 +0545] "GET /ControlledLogin/Display.jsp HTTP/1.1" 200 174
0:0:0:0:0:0:0:1 - - [20/Oct/2019:20:51:16 +0545] "GET /ControlledLogin/Display.jsp HTTP/1.1" 200 159
