<?xml version="1.0" encoding="UTF-8"?>
<session version="1.0">
<refactoring accessors="true" comment="Delete element from project &apos;Lecture6&apos;&#x0D;&#x0A;- Original project: &apos;Lecture6&apos;&#x0D;&#x0A;- Original element: &apos;lecture6.MyClass.java&apos;" description="Delete element" element1="/src&lt;lecture6{MyClass.java" elements="1" flags="589830" id="org.eclipse.jdt.ui.delete" resources="0" stamp="1567739593123" subPackages="false" version="1.0"/>
</session>